…
countries_to_present <- named_merged_data %>% filter(year == 2019) %>% arrange(-value) %>% top_n(10) %>% select(name)
```

```
## Selecting by value
```

``` r
pivoted_merged_data <- named_merged_data %>% filter(name %in% countries_to_present$name) %>% pivot_wider(id_cols = year) %>% arrange(-year)
pivoted_merged_data
```

```
## # A tibble: 56 × 11
##     year `Hong Kong` Kuwait Lithuania Maldives Montenegro `Russian Federation` Seychelles `South Africa` Thailand `United Arab Emirates`
##    <dbl>       <dbl>  <dbl>     <dbl>    <dbl>      <dbl>                <dbl>      <dbl>          <dbl>    <dbl>                  <dbl>
##  1  2019        2.86   1.65      1.67     1.64       1.85                 1.66       1.99          1.67      1.82                   2.13
##  2  2018        2.67   1.64      1.64     1.75       1.82                 1.59       1.85          1.61      1.76                   2.20
##  3  2017        2.49   1.73      1.54     1.90       1.67                 1.57       1.74          1.56      1.72                   2.18
##  4  2016        2.40   1.89      1.46     1.79       1.67                 1.59       1.61          1.46      1.70                   2.21
##  5  2015        2.29   1.96      1.44     1.70       1.62                 1.58       1.58          1.57      1.47                   2.01
##  6  2014        2.35   2.02      1.46     1.60       1.62                 1.54       1.65          1.45      1.39                   1.90
##  7  2013        2.37   1.76      1.55     1.56       1.60                 1.52       1.52          1.43      1.35                   1.84
##  8  2012        2.29   1.50      1.67     1.45       1.60                 1.45       1.54          1.29      1.23                   1.59
##  9  2011        2.16   1.57      1.63     1.42       1.87                 1.43       1.45          1.22      1.13                   1.36
## 10  2010        1.96   1.35      1.58     1.37       1.89                 1.67       1.31          0.973     1.05                   1.29
## # ℹ 46 more rows
```
…
